{"count":100,"offset":0,"limit":10,"next":"https://streetvoice.com/api/v4/search/?limit=10&offset=10&q=%E4%BA%94%E6%9C%88%E5%A4%A9&type=song","previous":null,"results":[{"type":"song","id":361768,"name":"披星戴月的想你 demo","image":"https://akstatic.streetvoice.com/song_covers/ac/cu/accusefive/afZSkqPhp3rbhD39Y9XkYY.jpeg?x-oss-process=image/resize,m_fill,h_200,w_200,limit_0/interlace,1/quality,q_95/format,jpg","length":355,"genre":4,"lyrics_is_lrc":false,"likes_count":39915,"share_count":1074,"publish_at":"2015-12-28T06:35:05+0800","created_at":"2015-12-28T06:35:05+0800","last_modified":"2018-09-17T23:31:43+0800","public":true,"draft":false,"schedule":false,"enable":true,"is_blocked":false,"user":{"type":"user","id":766769,"username":"accusefive","profile":{"image":"https://akstatic.streetvoice.com/profile_images/ac/cu/accusefive/GYBpbmECEmCmEzqzeGwFH3.jpg?x-oss-process=image/resize,m_fill,h_360,w_360,limit_0/interlace,1/quality,q_95/format,jpg","nickname":"告五人 Accusefive","identity":1,"is_blocked":false,"is_cellphone_verified":true,"account_is_validated":true,"is_accredited":true},"clap_config":{"type":"user_clap_config","agreement_accepted":false,"clap_enabled":false,"is_freezed":false}},"album":null,"is_focus":null,"is_clap_freezed":false,"clap_config":{"type":"song_clap_config","clap_enabled":true,"is_freezed":false,"reason":null}},{"type":"song","id":364042,"name":"愛在夏天 正式上線版","image":"https://akstatic.streetvoice.com/song_covers/ac/cu/accusefive/HTtnr6A6nvzb5t9HRvwrMF.jpg?x-oss-process=image/resize,m_fill,h_200,w_200,limit_0/interlace,1/quality,q_95/format,jpg","length":380,"genre":4,"lyrics_is_lrc":false,"likes_count":26594,"share_count":797,"publish_at":"2016-02-23T05:36:04+0800","created_at":"2016-02-23T05:36:04+0800","last_modified":"2018-05-20T00:21:28+0800","public":true,"draft":false,"schedule":false,"enable":true,"is_blocked":false,"user":{"type":"user","id":766769,"username":"accusefive","profile":{"image":"https://akstatic.streetvoice.com/profile_images/ac/cu/accusefive/GYBpbmECEmCmEzqzeGwFH3.jpg?x-oss-process=image/resize,m_fill,h_360,w_360,limit_0/interlace,1/quality,q_95/format,jpg","nickname":"告五人 Accusefive","identity":1,"is_blocked":false,"is_cellphone_verified":true,"account_is_validated":true,"is_accredited":true},"clap_config":{"type":"user_clap_config","agreement_accepted":false,"clap_enabled":false,"is_freezed":false}},"album":{"type":"album","id":97298028,"name":"２０１８夏日單曲"},"is_focus":null,"is_clap_freezed":false,"clap_config":{"type":"song_clap_config","clap_enabled":true,"is_freezed":false,"reason":null}},{"type":"song","id":366651,"name":"八月二十五","image":"https://akstatic.streetvoice.com/music_albums/Su/pe/SuperNapkin/c7c4f99b774b467a923c6b3db9497da7.png?x-oss-process=image/resize,m_fill,h_200,w_200,limit_0/interlace,1/quality,q_95/format,jpg","length":291,"genre":7,"lyrics_is_lrc":false,"likes_count":191,"share_count":41,"publish_at":"2016-03-30T23:08:44+0800","created_at":"2016-03-30T23:08:44+0800","last_modified":"2016-04-04T06:05:55+0800","public":true,"draft":false,"schedule":false,"enable":true,"is_blocked":false,"user":{"type":"user","id":1540170,"username":"SuperNapkin","profile":{"image":"https://akstatic.streetvoice.com/profile_images/Su/pe/SuperNapkin/mTuq35d3rnvZUXw3ZTi2qu.jpg?x-oss-process=image/resize,m_fill,h_360,w_360,limit_0/interlace,1/quality,q_95/format,jpg","nickname":"Super Napkin","identity":1,"is_blocked":false,"is_cellphone_verified":true,"account_is_validated":true,"is_accredited":false},"clap_config":{"type":"user_clap_config","agreement_accepted":false,"clap_enabled":false,"is_freezed":false}},"album":{"type":"album","id":97263501,"name":"Rhythmic Lizard Moon"},"is_focus":null,"is_clap_freezed":false,"clap_config":{"type":"song_clap_config","clap_enabled":true,"is_freezed":false,"reason":null}},{"type":"song","id":711309,"name":"十月十五天氣雨","image":"https://akstatic.streetvoice.com/song_covers/Jo/e_/Joe_B/7jz75RvF6bPyHsQuFJ8bvb.jpeg?x-oss-process=image/resize,m_fill,h_200,w_200,limit_0/interlace,1/quality,q_95/format,jpg","length":193,"genre":5,"lyrics_is_lrc":false,"likes_count":42,"share_count":82,"publish_at":"2022-12-15T20:00:00+0800","created_at":"2022-12-14T17:45:31+0800","last_modified":"2025-05-22T19:54:10+0800","public":true,"draft":false,"schedule":false,"enable":true,"is_blocked":false,"user":{"type":"user","id":2884882,"username":"Joe_B","profile":{"image":"https://akstatic.streetvoice.com/profile_images/Jo/e_/Joe_B/eT7XuJ7Tva9BmL3odiJ4d7.jpg?x-oss-process=image/resize,m_fill,h_360,w_360,limit_0/interlace,1/quality,q_95/format,jpg","nickname":"9B","identity":1,"is_blocked":false,"is_cellphone_verified":true,"account_is_validated":true,"is_accredited":false},"clap_config":{"type":"user_clap_config","agreement_accepted":false,"clap_enabled":false,"is_freezed":false}},"album":null,"is_focus":null,"is_clap_freezed":false,"clap_config":{"type":"song_clap_config","clap_enabled":true,"is_freezed":false,"reason":null}},{"type":"song","id":602411,"name":"溫柔 / Mayday五月天 ( cover )","image":"https://akstatic.streetvoice.com/song_covers/b8/09/b8095/kk7DKpAqD9ZN6awbUCRs9g.jpg?x-oss-process=image/resize,m_fill,h_200,w_200,limit_0/interlace,1/quality,q_95/format,jpg","length":174,"genre":4,"lyrics_is_lrc":false,"likes_count":42,"share_count":2,"publish_at":"2020-01-03T10:05:36+0800","created_at":"2020-01-03T09:58:33+0800","last_modified":"2020-10-09T16:08:42+0800","public":true,"draft":false,"schedule":false,"enable":true,"is_blocked":false,"user":{"type":"user","id":1451964,"username":"b8095","profile":{"image":"https://akstatic.streetvoice.com/profile_images/b8/09/b8095/DfkZRPDYCuaCD2NYcjD5XV.jpeg?x-oss-process=image/resize,m_fill,h_360,w_360,limit_0/interlace,1/quality,q_95/format,jpg","nickname":"書帆 ShuShu","identity":1,"is_blocked":false,"is_cellphone_verified":true,"account_is_validated":true,"is_accredited":true},"clap_config":{"type":"user_clap_config","agreement_accepted":true,"clap_enabled":true,"is_freezed":false}},"album":{"type":"album","id":97298814,"name":"Covers //"},"is_focus":null,"is_clap_freezed":true,"clap_config":{"type":"song_clap_config","clap_enabled":true,"is_freezed":true,"reason":"版權疑慮，批次匯入關閉。"}},{"type":"song","id":595101,"name":"月光純潔的晚上","image":"https://akstatic.streetvoice.com/song_covers/fi/ft/fiftybodyfifty/Zq5c2vnLH56eDcQDUC9px.png?x-oss-process=image/resize,m_fill,h_200,w_200,limit_0/interlace,1/quality,q_95/format,jpg","length":297,"genre":1,"lyrics_is_lrc":false,"likes_count":118,"share_count":2,"publish_at":"2019-09-28T00:00:00+0800","created_at":"2019-09-26T13:20:46+0800","last_modified":"2019-09-28T00:00:09+0800","public":true,"draft":false,"schedule":false,"enable":true,"is_blocked":false,"user":{"type":"user","id":735664,"username":"fiftybodyfifty","profile":{"image":"https://akstatic.streetvoice.com/profile_images/fi/ft/fiftybodyfifty/kUj3L4qCydbSpfRFPnxmoR.png?x-oss-process=image/resize,m_fill,h_360,w_360,limit_0/interlace,1/quality,q_95/format,jpg","nickname":"五五身 FiftyBodyFifty","identity":1,"is_blocked":false,"is_cellphone_verified":true,"account_is_validated":true,"is_accredited":true},"clap_config":{"type":"user_clap_config","agreement_accepted":true,"clap_enabled":true,"is_freezed":false}},"album":{"type":"album","id":97314135,"name":"【EP】人類空虛簡史"},"is_focus":null,"is_clap_freezed":false,"clap_config":{"type":"song_clap_config","clap_enabled":false,"is_freezed":false,"reason":null}},{"type":"song","id":559583,"name":"水神 & 史蒂芬 - 五月夜話 (May Night)","image":"https://akstatic.streetvoice.com/song_covers/ZE/O_/ZEO_WATER/5VEoLsgyBt4uuQEZAyhrd8.jpg?x-oss-process=image/resize,m_fill,h_200,w_200,limit_0/interlace,1/quality,q_95/format,jpg","length":180,"genre":2,"lyrics_is_lrc":false,"likes_count":1924,"share_count":190,"publish_at":"2018-07-02T18:39:38+0800","created_at":"2018-07-02T18:39:38+0800","last_modified":"2019-09-24T15:30:44+0800","public":true,"draft":false,"schedule":false,"enable":true,"is_blocked":false,"user":{"type":"user","id":2175548,"username":"ZEO_WATER","profile":{"image":"https://akstatic.streetvoice.com/profile_images/ZE/O_/ZEO_WATER/HobNJUsCxk93aFLYy22FUi.jpg?x-oss-process=image/resize,m_fill,h_360,w_360,limit_0/interlace,1/quality,q_95/format,jpg","nickname":"ZEO","identity":1,"is_blocked":false,"is_cellphone_verified":true,"account_is_validated":true,"is_accredited":true},"clap_config":{"type":"user_clap_config","agreement_accepted":false,"clap_enabled":false,"is_freezed":false}},"album":null,"is_focus":null,"is_clap_freezed":false,"clap_config":{"type":"song_clap_config","clap_enabled":true,"is_freezed":false,"reason":null}},{"type":"song","id":629132,"name":"我的溫柔 (原版五月天)","image":"https://akstatic.streetvoice.com/song_covers/ti/ng/tingplays/6dxyJX3uKjPcNYZHed4fZW.jpg?x-oss-process=image/resize,m_fill,h_200,w_200,limit_0/interlace,1/quality,q_95/format,jpg","length":230,"genre":4,"lyrics_is_lrc":false,"likes_count":23,"share_count":4,"publish_at":"2020-12-07T20:00:00+0800","created_at":"2020-11-30T01:24:19+0800","last_modified":"2020-12-07T20:00:37+0800","public":true,"draft":false,"schedule":false,"enable":true,"is_blocked":false,"user":{"type":"user","id":1309722,"username":"tingplays","profile":{"image":"https://akstatic.streetvoice.com/profile_images/ti/ng/tingplays/h3w6WYUNa7bzAMJj6KoKsu.JPG?x-oss-process=image/resize,m_fill,h_360,w_360,limit_0/interlace,1/quality,q_95/format,jpg","nickname":"tingplays","identity":1,"is_blocked":false,"is_cellphone_verified":true,"account_is_validated":true,"is_accredited":true},"clap_config":{"type":"user_clap_config","agreement_accepted":true,"clap_enabled":true,"is_freezed":false}},"album":null,"is_focus":null,"is_clap_freezed":true,"clap_config":{"type":"song_clap_config","clap_enabled":true,"is_freezed":true,"reason":"版權疑慮"}},{"type":"song","id":164365,"name":"Amazing Girl","image":"https://akstatic.streetvoice.com/music_albums/ca/sp/caspergo/df034b39dc6645e59c5ed05c7a594c3b.JPG?x-oss-process=image/resize,m_fill,h_200,w_200,limit_0/interlace,1/quality,q_95/format,jpg","length":257,"genre":1,"lyrics_is_lrc":false,"likes_count":15,"share_count":0,"publish_at":"2012-03-22T05:19:01+0800","created_at":"2012-03-22T05:19:01+0800","last_modified":"2015-02-13T01:51:24+0800","public":true,"draft":false,"schedule":false,"enable":true,"is_blocked":false,"user":{"type":"user","id":15913,"username":"caspergo","profile":{"image":"https://akstatic.streetvoice.com/profile_images/ca/sp/caspergo/cc9663c4735a11e1b4580026551ae608.jpg?x-oss-process=image/resize,m_fill,h_360,w_360,limit_0/interlace,1/quality,q_95/format,jpg","nickname":"月的五次方","identity":1,"is_blocked":false,"is_cellphone_verified":false,"account_is_validated":false,"is_accredited":false},"clap_config":{"type":"user_clap_config","agreement_accepted":false,"clap_enabled":false,"is_freezed":false}},"album":{"type":"album","id":12554,"name":"EP"},"is_focus":null,"is_clap_freezed":false,"clap_config":{"type":"song_clap_config","clap_enabled":true,"is_freezed":false,"reason":null}},{"type":"song","id":164371,"name":"Waiting For","image":"https://akstatic.streetvoice.com/music_albums/ca/sp/caspergo/df034b39dc6645e59c5ed05c7a594c3b.JPG?x-oss-process=image/resize,m_fill,h_200,w_200,limit_0/interlace,1/quality,q_95/format,jpg","length":286,"genre":1,"lyrics_is_lrc":false,"likes_count":30,"share_count":2,"publish_at":"2012-03-22T05:30:23+0800","created_at":"2012-03-22T05:30:23+0800","last_modified":"2015-06-21T08:39:53+0800","public":true,"draft":false,"schedule":false,"enable":true,"is_blocked":false,"user":{"type":"user","id":15913,"username":"caspergo","profile":{"image":"https://akstatic.streetvoice.com/profile_images/ca/sp/caspergo/cc9663c4735a11e1b4580026551ae608.jpg?x-oss-process=image/resize,m_fill,h_360,w_360,limit_0/interlace,1/quality,q_95/format,jpg","nickname":"月的五次方","identity":1,"is_blocked":false,"is_cellphone_verified":false,"account_is_validated":false,"is_accredited":false},"clap_config":{"type":"user_clap_config","agreement_accepted":false,"clap_enabled":false,"is_freezed":false}},"album":{"type":"album","id":12554,"name":"EP"},"is_focus":null,"is_clap_freezed":false,"clap_config":{"type":"song_clap_config","clap_enabled":true,"is_freezed":false,"reason":null}}]}